{"pagination":{"last_visible_page":2656,"has_next_page":true,"current_page":96,"items":{"count":25,"total":66376,"per_page":25}},"data":[{"mal_id":2215,"url":"https:\/\/myanimelist.net\/character\/2215\/Akiha_Toono","images":{"jpg":{"image_url":"https:\/\/cdn.myanimelist.net\/images\/characters\/13\/274185.jpg"},"webp":{"image_url":"https:\/\/cdn.myanimelist.net\/images\/characters\/13\/274185.webp","small_image_url":"https:\/\/cdn.myanimelist.net\/images\/characters\/13\/274185t.webp"}},"name":"Akiha Toono","name_kanji":"\u9060\u91ce \u79cb\u8449","nicknames":[],"favorites":494,"about":"Birthday: September 22\nHeight: 160 cm\nWeight: 45 kg\nBWH: 73-57-79\n\nShiki's younger sister and the current head of the Toono family. She is very prim and proper and carries a grace and nobility about her. \n\n\n(Source: Wikipedia)"},{"mal_id":3643,"url":"https:\/\/myanimelist.net\/character\/3643\/Justy_Ueki_Tylor","images":{"jpg":{"image_url":"https:\/\/cdn.myanimelist.net\/images\/characters\/7\/64875.jpg"},"webp":{"image_url":"https:\/\/cdn.myanimelist.net\/images\/characters\/7\/64875.webp","small_image_url":"https:\/\/cdn.myanimelist.net\/images\/characters\/7\/64875t.webp"}},"name":"Justy Ueki Tylor","name_kanji":"\u30b8\u30e3\u30b9\u30c6\u30a3\u30fb\u30a6\u30a8\u30ad\u30fb\u30bf\u30a4\u30e9\u30fc","nicknames":["Captain Tylor","Paco Paco"],"favorites":494,"about":"Age: 20\nAffiliation: United Planets Space Force (UPSF)\nRank: Lieutenant Commander, Captain of the Soyokaze\n\nJusty Ueki Tylor joins the United Planets Space Force hoping for an easy ride through life but with the devil's luck becomes a hero. He is soon promoted Lieutenant Commander and Captain of Soyokaze. \n\nTylor is an irresponsible, laid back captain that can always find his way out of trouble unscathed. Tylor normally allows his crew to \"bend\" the rules, such as letting the surgeon drink while on duty. Throughout the ranks it is argued that Tylor is either the most brilliant military mind or just a lucky buffoon."},{"mal_id":148927,"url":"https:\/\/myanimelist.net\/character\/148927\/Amatsuyu_Kisaragi","images":{"jpg":{"image_url":"https:\/\/cdn.myanimelist.net\/images\/characters\/14\/390424.jpg"},"webp":{"image_url":"https:\/\/cdn.myanimelist.net\/images\/characters\/14\/390424.webp","small_image_url":"https:\/\/cdn.myanimelist.net\/images\/characters\/14\/390424t.webp"}},"name":"Amatsuyu Kisaragi","name_kanji":"\u5982\u6708 \u96e8\u9732","nicknames":["Jouro"],"favorites":494,"about":null},{"mal_id":41400,"url":"https:\/\/myanimelist.net\/character\/41400\/Kouichi_Sakakibara","images":{"jpg":{"image_url":"https:\/\/cdn.myanimelist.net\/images\/characters\/16\/151285.jpg"},"webp":{"image_url":"https:\/\/cdn.myanimelist.net\/images\/characters\/16\/151285.webp","small_image_url":"https:\/\/cdn.myanimelist.net\/images\/characters\/16\/151285t.webp"}},"name":"Kouichi Sakakibara","name_kanji":"\u698a\u539f \u6052\u4e00","nicknames":["Sakaki","Horror Teen"],"favorites":494,"about":"Age: 15\nGrade: 3rd year, 3rd class\nHeight: 167 cm (5'6\")\nWeight: 55 kg\n\nKouichi Sakakibara is the new transfer student into Yomiyama North Middle School's third year's third class (in May 1998). He is 15 years old and the only son in the Sakakibara family. His mother supposedly passed away 15 years ago after giving birth to him.\nHe becomes very interested and curious about Mei Misaki and attempts to pursue a friendship with her, but little does he know of the trouble this is going to cause..."},{"mal_id":74587,"url":"https:\/\/myanimelist.net\/character\/74587\/Saki_Kawasaki","images":{"jpg":{"image_url":"https:\/\/cdn.myanimelist.net\/images\/characters\/4\/205959.jpg"},"webp":{"image_url":"https:\/\/cdn.myanimelist.net\/images\/characters\/4\/205959.webp","small_image_url":"https:\/\/cdn.myanimelist.net\/images\/characters\/4\/205959t.webp"}},"name":"Saki Kawasaki","name_kanji":"\u5ddd\u5d0e \u6c99\u5e0c","nicknames":[],"favorites":493,"about":"Saki is Hachiman's classmate who seems like a delinquent, but wants to make friends deep down. She cares deeply for her brother as she hid her name and age to work in night-shift part-time jobs in order to pay school fees and reduce her family's load. After her brother asked help from the service club, the service club eventually followed her to her workplace and found out her motives behind working night-shifts, she stopped working after the service club suggested her to aim for a scholarship instead.\n\n(Source: Wikipedia)"},{"mal_id":3966,"url":"https:\/\/myanimelist.net\/character\/3966\/Hikari","images":{"jpg":{"image_url":"https:\/\/cdn.myanimelist.net\/images\/characters\/4\/110073.jpg"},"webp":{"image_url":"https:\/\/cdn.myanimelist.net\/images\/characters\/4\/110073.webp","small_image_url":"https:\/\/cdn.myanimelist.net\/images\/characters\/4\/110073t.webp"}},"name":"Hikari","name_kanji":"\u30d2\u30ab\u30ea","nicknames":["Dawn","Pikari","Dee Dee","Maya"],"favorites":493,"about":"Dawn is a 10-year-old girl who has just started her Pok\u00e9mon journey. Her mother once won the Grand Festival, and Dawn has her heart set on following in her mother's footsteps and aims to be a great Coordinator. She befriended her starter Piplup while searching for a Chimchar that escaped from Professor Rowan's lab. Shortly afterward, she met up with Ash after finding Pikachu, who was on the run from Team Rocket. Dawn decided to join Ash on his journey through Sinnoh. \n\nDawn's Pokemon:\nPiplup\nBuneary\nPachirisu\nMamoswine (Evolved from Swinub and then Piloswine)\nQuilava (Evolved from Cyndaquil)\nTogekiss\nAmbipom (Evolved from Aipom; originally Ash's)\nBuizel (Traded to Ash)"},{"mal_id":157599,"url":"https:\/\/myanimelist.net\/character\/157599\/Shuuichi_Saihara","images":{"jpg":{"image_url":"https:\/\/cdn.myanimelist.net\/images\/characters\/6\/347722.jpg"},"webp":{"image_url":"https:\/\/cdn.myanimelist.net\/images\/characters\/6\/347722.webp","small_image_url":"https:\/\/cdn.myanimelist.net\/images\/characters\/6\/347722t.webp"}},"name":"Shuuichi Saihara","name_kanji":"\u6700\u539f \u7d42\u4e00","nicknames":[],"favorites":491,"about":"Shuuichi Saihara is a student in Ultimate Academy for Gifted Juveniles and a participant in the Killing School Semester featured in Danganronpa V3: Killing Harmony.\n\nShuuichi has the title of the Ultimate Detective (Super High School Level Detective). Though he himself claims he doesn't deserve it, as he is only a \"detective-in-training.\"\n\nHe runs a detective agency with his uncle, where he mostly deals with minor cases. In a conversation with Kaede, Shuichi claimed that the hardest case he ever had was for a missing pet assignment, which was an alligator. He stated it was much harder, than any infidelity case he ever worked on. By Case 1, Shuichi tells Kaede how he once caught a murderer who was seeking revenge for his family, and how he regrets it.\n\nCase I\n\n\nCase II\n\n\nCase III\n\n\nCase IV\n\n\nCase V\n\n\nCase VI\n\n\n(Source: Danganronpa Wiki)\n\nNo voice actors have been added to this character. Help improve our database by searching for a voice actor, and adding this character to their roles ."},{"mal_id":143982,"url":"https:\/\/myanimelist.net\/character\/143982\/Qifrey","images":{"jpg":{"image_url":"https:\/\/cdn.myanimelist.net\/images\/characters\/9\/445801.jpg"},"webp":{"image_url":"https:\/\/cdn.myanimelist.net\/images\/characters\/9\/445801.webp","small_image_url":"https:\/\/cdn.myanimelist.net\/images\/characters\/9\/445801t.webp"}},"name":"Qifrey","name_kanji":"\u30ad\u30fc\u30d5\u30ea\u30fc","nicknames":[],"favorites":491,"about":"Qifrey is a witch and Coco's teacher. He runs an atelier and currently has four disciples.\n\n\n\n\n(Source: Witch Hat Atelier Wiki)\n\nNo voice actors have been added to this character. Help improve our database by searching for a voice actor, and adding this character to their roles ."},{"mal_id":2651,"url":"https:\/\/myanimelist.net\/character\/2651\/Sadaharu","images":{"jpg":{"image_url":"https:\/\/cdn.myanimelist.net\/images\/characters\/9\/43475.jpg"},"webp":{"image_url":"https:\/\/cdn.myanimelist.net\/images\/characters\/9\/43475.webp","small_image_url":"https:\/\/cdn.myanimelist.net\/images\/characters\/9\/43475t.webp"}},"name":"Sadaharu","name_kanji":"\u5b9a\u6625","nicknames":["Sadaemon Wolf The Mask"],"favorites":491,"about":"Birthday: February 25 (Piscis)\nHeight: 170 cm\nWeight: 300 kg\n\nSadaharu has the outward appearance of a giant dog, but is actually an inugami. When sitting on his haunches, he is taller than most humans. He was left in front of Gintoki's apartment in a box that had \"To Mr. Freelancer\" written on it. Sadaharu chomps on anything smaller than itself, such as Gintoki's and other people's heads. Kagura seems to be the only one who can control him, for she has immense strength, though he chomps on her occasionally. Though he was dangerous when Gintoki first received him, he has become quite tame in the later episodes, and has helped the main characters in many occasions. He was named by Kagura, after her first pet, a rabbit which she accidentally killed while having a nightmare. He was originally owned by a pair of miko sisters, who initially called him Kamiko.\n\nRecently, Sadaharu has impressed a yakuza's boss and receives permission to date his dog (whom Sadaharu himself has fallen in love for).\n\n(Source: Wikipedia)"},{"mal_id":54147,"url":"https:\/\/myanimelist.net\/character\/54147\/Natsumi_Koshigaya","images":{"jpg":{"image_url":"https:\/\/cdn.myanimelist.net\/images\/characters\/14\/222841.jpg"},"webp":{"image_url":"https:\/\/cdn.myanimelist.net\/images\/characters\/14\/222841.webp","small_image_url":"https:\/\/cdn.myanimelist.net\/images\/characters\/14\/222841t.webp"}},"name":"Natsumi Koshigaya","name_kanji":"\u8d8a\u8c37 \u590f\u6d77","nicknames":["Nattsun","Nacchan"],"favorites":491,"about":"Birthdate: January 24\nHeight: 156 cm\nBlood type: B\nLikes: ramen\nDislikes: daikon radish sprouts\n\nNatsumi is a first-year middle school student of the Asahigaoka Branch School. She is Yukiko's youngest daughter, and Suguru and Komari's youngest sister. Fun-loving and carefree, she likes playing pranks on other people, talks back to her mother, and does poorly in school. She usually tries to get out of trouble by pinning the blame on someone, or something, else.\n\nShe used to have a brother complex when she was younger, promising to marry her older brother, and is very embarrassed of it."},{"mal_id":99671,"url":"https:\/\/myanimelist.net\/character\/99671\/Koutarou_Amon","images":{"jpg":{"image_url":"https:\/\/cdn.myanimelist.net\/images\/characters\/13\/251453.jpg"},"webp":{"image_url":"https:\/\/cdn.myanimelist.net\/images\/characters\/13\/251453.webp","small_image_url":"https:\/\/cdn.myanimelist.net\/images\/characters\/13\/251453t.webp"}},"name":"Koutarou Amon","name_kanji":"\u4e9c\u9580 \u92fc\u592a\u6717","nicknames":["Floppy","Robed Giant"],"favorites":491,"about":"Species: Human\nAge: 26\nBirthday: April 7\nHeight: 191 cm\nWeight: 94 kg\nBlood type: A\nQuinque: Kura\nLikes: Sweet food, Training and Investigation\nDislikes: Spicy food\n\nA first class police investigator who investigates Ghouls, also known as a Dove. He comes to the 20th ward with his mentor, Mado Kureo, to investigate Ghoul incidents in the area. He has a strong sense of justice, fervently believing it is the right and moral thing to do to exterminate the Ghouls. He hunts the Ghouls in order to prevent more human children from becoming orphaned like himself, and he often works after hours to achieve his goals.\n\nDue to a personal experience as an orphan during his childhood, Amon has come to the conclusion that this world is wrong, so he has made it his task to change the world. Because he thinks it's the ghouls that are twisting the world, he views the eradication of all ghouls as a way to mend this world. After being spared by Ken Kaneki, Amon has started to question the righteousness of his crusade.\n\nHe has a certain interest in the two ghouls Rabbit and Eyepatch.\n\nHe wields a \"Quinque\" (a weapon made from the \"Kagune\" of a Ghoul) that has the appearance of a pole-arm with a large cylindrical bludgeon at the end.  \n  \n\n(Source: Tokyo Ghoul Wikia)"},{"mal_id":164900,"url":"https:\/\/myanimelist.net\/character\/164900\/Gobta","images":{"jpg":{"image_url":"https:\/\/cdn.myanimelist.net\/images\/characters\/12\/381715.jpg"},"webp":{"image_url":"https:\/\/cdn.myanimelist.net\/images\/characters\/12\/381715.webp","small_image_url":"https:\/\/cdn.myanimelist.net\/images\/characters\/12\/381715t.webp"}},"name":"Gobta","name_kanji":"\u30b4\u30d6\u30bf","nicknames":[],"favorites":490,"about":"Race: Goblin (formally), Hobgoblin\nBlessings\/Protection: Storm Crest\nOccupations: Goblin Rider Captain, Goblin Rider Vice Captain (formally) \nRank: A- (fully equipped), C (Magicule-level)"},{"mal_id":21960,"url":"https:\/\/myanimelist.net\/character\/21960\/Lisa_Lisa","images":{"jpg":{"image_url":"https:\/\/cdn.myanimelist.net\/images\/characters\/6\/196391.jpg"},"webp":{"image_url":"https:\/\/cdn.myanimelist.net\/images\/characters\/6\/196391.webp","small_image_url":"https:\/\/cdn.myanimelist.net\/images\/characters\/6\/196391t.webp"}},"name":"Lisa Lisa","name_kanji":"\u30ea\u30b5\u30ea\u30b5","nicknames":[],"favorites":490,"about":"A mysterious Ripple user whom Joseph Joestar meets in Venice, Lisa Lisa reveals herself to be his friend Caesar Zeppeli's mentor. She trains Joseph in the ways of the Ripple and joins in the fight against the Pillar Men, as a powerful Ripple user in her own right.\n\n\n(Source: Wikipedia)"},{"mal_id":2763,"url":"https:\/\/myanimelist.net\/character\/2763\/Mizuho_Kazami","images":{"jpg":{"image_url":"https:\/\/cdn.myanimelist.net\/images\/characters\/7\/61317.jpg"},"webp":{"image_url":"https:\/\/cdn.myanimelist.net\/images\/characters\/7\/61317.webp","small_image_url":"https:\/\/cdn.myanimelist.net\/images\/characters\/7\/61317t.webp"}},"name":"Mizuho Kazami","name_kanji":"\u98a8\u898b\u307f\u305a\u307b","nicknames":[],"favorites":489,"about":"Name: Mizuho Kazami\nRace: 1\/2 Alien  1\/2 Human\nAge: 23 Years\nHair: Hot Pink\nEyes: Purple\nHeight: 170 cm\nStatus: Galaxy Federation resident observer\n\nMiss Mizuho Kazami is no ordinary high school teacher. She is actually a resident observer for the Galaxy Federation. Right after she lands on Earth, Kei Kusanagi sees her materialize. The next morning by the lake, he discovers that she is his homeroom teacher, and his neighbor. After getting caught alone in the supply room at school late one night by Kei's uncle, aunt, and the principal of the school, Kei's uncle announces that the two were secretly married. Then Kei reveals he is actually 18 years old instead of 15.\n\nMizuho has many different personalities. Though she is 23, and her father was human, she knows little to nothing about Earth except a love of the best candy in Japan. She has two living relatives, her mother and sister. Her sister, Maho, threatens Kei every time she sees him, and more than once tried to kill him. Mizuho's mother, Hatsuho tries to show Mizuho many sexual tricks."},{"mal_id":98483,"url":"https:\/\/myanimelist.net\/character\/98483\/Neko_Fujinomiya","images":{"jpg":{"image_url":"https:\/\/cdn.myanimelist.net\/images\/characters\/9\/315039.jpg"},"webp":{"image_url":"https:\/\/cdn.myanimelist.net\/images\/characters\/9\/315039.webp","small_image_url":"https:\/\/cdn.myanimelist.net\/images\/characters\/9\/315039t.webp"}},"name":"Neko Fujinomiya","name_kanji":"\u85e4\u30ce\u5bae \u5be7\u5b50","nicknames":[],"favorites":489,"about":"Age: 16-17\nBirthday: June 16\nClass: 2-B\n\nNeko Fujiomiya is a cute and cheerful rich girl who transferred school. She also mysteriously knows Masamune Makabe and seems to have an interest toward him."},{"mal_id":183430,"url":"https:\/\/myanimelist.net\/character\/183430\/Setsuna","images":{"jpg":{"image_url":"https:\/\/cdn.myanimelist.net\/images\/characters\/7\/422025.jpg"},"webp":{"image_url":"https:\/\/cdn.myanimelist.net\/images\/characters\/7\/422025.webp","small_image_url":"https:\/\/cdn.myanimelist.net\/images\/characters\/7\/422025t.webp"}},"name":"Setsuna","name_kanji":"\u30bb\u30c4\u30ca","nicknames":[],"favorites":488,"about":"Setsuna is a female Demi-human slave that Keyaru bought and recruited into his party.\n\nAfter she and other members of her tribe were taken as slaves and endured harsh abuse, Setsuna has developed a strong hatred towards humans and takes great pleasure in killing Jioral Kingdom knights. Despite this, she is not willing to extend her vengeance towards innocent people.\n\n\n\nPower and Abilities\n\n\n(Source: Kaifuku Jutsushi no Yarinaoshi Wiki)"},{"mal_id":70407,"url":"https:\/\/myanimelist.net\/character\/70407\/Ukyou","images":{"jpg":{"image_url":"https:\/\/cdn.myanimelist.net\/images\/characters\/10\/180675.jpg"},"webp":{"image_url":"https:\/\/cdn.myanimelist.net\/images\/characters\/10\/180675.webp","small_image_url":"https:\/\/cdn.myanimelist.net\/images\/characters\/10\/180675t.webp"}},"name":"Ukyou","name_kanji":"\u30a6\u30ad\u30e7\u30a6","nicknames":["Death God","Ukya"],"favorites":488,"about":"Age: 24 \nGender: Male\nEyes: Green\nHair: Green \nOccupation: Photographer \nBirthday: March 3\nBlood Type: O\n\nUkyou is a tall, slim young man with waist-length green hair and green eyes. His bangs fall freely over his face, down to his cheeks, and there is a long braid on Ukyou's right, held together using a white hair-band. \n\nUkyou's personality is out of the ordinary. He has a split personality disorder; one of his personalities is kind and caring, the other is somewhat crazy and menacing. When overcome with his more maddened and twisted personality, Ukyou develops dark lines under his eyes and he tends to grin very widely. \n\nHis symbolic route in the game is the \"Joker.\"\n\n(Source: Wikipedia, Amnesia wiki)"},{"mal_id":38954,"url":"https:\/\/myanimelist.net\/character\/38954\/Sofia_Valmer","images":{"jpg":{"image_url":"https:\/\/cdn.myanimelist.net\/images\/characters\/10\/203087.jpg"},"webp":{"image_url":"https:\/\/cdn.myanimelist.net\/images\/characters\/10\/203087.webp","small_image_url":"https:\/\/cdn.myanimelist.net\/images\/characters\/10\/203087t.webp"}},"name":"Sofia Valmer","name_kanji":"\u30bd\u30d5\u30a3\u30a2\u30fb\u30f4\u30a7\u30eb\u30de\u30fc\uff08\u30d0\u30eb\u30e1\uff09","nicknames":["Valmet","Anego"],"favorites":488,"about":"An ex-mechanized j\u00e4ger major of the Finnish Rapid Deployment Force who is skilled with knives. She is in love with Koko, but it is unknown whether Koko returns her feelings. Her real name is Sofia Velmer. Valmet comes from a military family and served as a UN peacekeeping officer in Africa. Her entire Finnish-led UN squad was annihilated by Chen Guoming and she herself lost an eye in that attack. Since then Valmet feels uneasy and even frightened whenever she sets foot on African soil.\n\n(Source: Wikipedia)"},{"mal_id":27152,"url":"https:\/\/myanimelist.net\/character\/27152\/Risotto_Nero","images":{"jpg":{"image_url":"https:\/\/cdn.myanimelist.net\/images\/characters\/11\/411044.jpg"},"webp":{"image_url":"https:\/\/cdn.myanimelist.net\/images\/characters\/11\/411044.webp","small_image_url":"https:\/\/cdn.myanimelist.net\/images\/characters\/11\/411044t.webp"}},"name":"Risotto Nero","name_kanji":"\u30ea\u30be\u30c3\u30c8\u30fb\u30cd\u30a8\u30ed","nicknames":[],"favorites":487,"about":"His stand is named Metallica. Metallica appears in the form of hundreds of tiny bodies, each resembling a small metal strip with vestigial arms, one or two scars, and featureless faces. Metallica is normally bound to Nero's blood, from which it can project magnetic auras. These auras allow Nero to reshape blood into any form by manipulation of the iron in hemoglobin. More specifically, he can manifest such sharp and deadly objects as razor blades, nails, and scissors directly inside his foe (apparently from memory, since the razor blades come with brand label etchings), and manipulate his own blood to create iron stitchings for any wounds he receives. One of Metallica's most dangerous qualities is that even if its target isn't killed by being slashed and pierced by the created objects, the immense iron deficit created in the victim's blood will probably be fatal in and of itself."},{"mal_id":56063,"url":"https:\/\/myanimelist.net\/character\/56063\/Neko_Kuroha","images":{"jpg":{"image_url":"https:\/\/cdn.myanimelist.net\/images\/characters\/10\/241213.jpg"},"webp":{"image_url":"https:\/\/cdn.myanimelist.net\/images\/characters\/10\/241213.webp","small_image_url":"https:\/\/cdn.myanimelist.net\/images\/characters\/10\/241213t.webp"}},"name":"Neko Kuroha","name_kanji":"\u9ed2\u7fbd \u5be7\u5b50","nicknames":["Kuroneko"],"favorites":487,"about":"Being a magician Kuroha has the power to destroy any inanimate object, as well as transferring power when in direct contact with organic beings. Her power is so strong that while being in the lab, she had to undergo multiple extensive tests. As a result, Kuroha has almost completely forgotten her childhood memories, with only a few bits of emotion lingering.\n\nAlthough usually gentle and caring, she can be short-tempered when embarrassed. She easily gets jealous when Murakami is \"too close\" to other girls (especially when Kazumi is seducing Murakami) and she would use her magic to destroy things around unconsciously. She is very puzzled by this reaction."},{"mal_id":140519,"url":"https:\/\/myanimelist.net\/character\/140519\/Ginko_Sora","images":{"jpg":{"image_url":"https:\/\/cdn.myanimelist.net\/images\/characters\/8\/322523.jpg"},"webp":{"image_url":"https:\/\/cdn.myanimelist.net\/images\/characters\/8\/322523.webp","small_image_url":"https:\/\/cdn.myanimelist.net\/images\/characters\/8\/322523t.webp"}},"name":"Ginko Sora","name_kanji":"\u7a7a \u9280\u5b50","nicknames":[],"favorites":487,"about":"Age: 14\nBirthdate: September 9, 2002\n\nGinko is a female shogi player who started moving shogi pieces at the age of 2, became Kiyotaki\u2019s disciple at the age of 4, and has owned two of the six titles attainable by female shogi players since she was 11. \n\nHer undefeated record against female pros is the source of her nickname, \u201cThe Snow White of Naniwa.\" While Ginko is an accomplished professional shogi player, Ginko\u2019s popularity is on another level compared to Yaichi\u2019s.\n\n(Source: Ryuuou no Oshigoto Wiki)"},{"mal_id":188563,"url":"https:\/\/myanimelist.net\/character\/188563\/Ling_Wang","images":{"jpg":{"image_url":"https:\/\/cdn.myanimelist.net\/images\/characters\/15\/424003.jpg"},"webp":{"image_url":"https:\/\/cdn.myanimelist.net\/images\/characters\/15\/424003.webp","small_image_url":"https:\/\/cdn.myanimelist.net\/images\/characters\/15\/424003t.webp"}},"name":"Ling Wang","name_kanji":null,"nicknames":[],"favorites":487,"about":"Age: 16\nHeight: 180cm\n\nWang Ling is a non-talkative individual who\u2018s obsessed with being average and not standing out. He tries to avoid troublesome matters yet he still manages to get involved and has also secretly saved the world on numerous accounts. He also lives for and loves his crispy noodles.\n\nWang Ling is stronger than Wukong with his extremely high levels of power. That is also why he is called the King in Lurking.\n\nHe has Dead Fish eyes and his trademark has always been an ellipsis; ex: Wang Ling \"...\"\n\nFather Wang had a pair of very beautiful phoenix eyes. Since he had taken to wearing glasses after he started writing, this characteristic wasn\u2019t so obvious\u2026 But this was the reason why Father Wang once suspected that Wang Ling wasn\u2019t his flesh and blood. Mother Wang had very beautiful double eyelids and big eyes! And Father Wang had phoenix eyes\u2026 But how did the two of them end up having a son with dead fish eyes? Later, Father Wang convinced himself\u2026His son Wang Ling\u2026 Must have mutated in the womb\u2026\n\n(Source: The Daily Life of the Immortal King Wiki)"},{"mal_id":174461,"url":"https:\/\/myanimelist.net\/character\/174461\/Yotasuke_Takahashi","images":{"jpg":{"image_url":"https:\/\/cdn.myanimelist.net\/images\/characters\/12\/441169.jpg"},"webp":{"image_url":"https:\/\/cdn.myanimelist.net\/images\/characters\/12\/441169.webp","small_image_url":"https:\/\/cdn.myanimelist.net\/images\/characters\/12\/441169t.webp"}},"name":"Yotasuke Takahashi","name_kanji":"\u9ad8\u6a4b \u4e16\u7530\u4ecb","nicknames":["Sekai-kun"],"favorites":486,"about":"Takahashi Yotasuke, also known as Sekai-kun (\u30bb\u30ab\u30a4\u304f\u3093), is a former member of the Art cram school Yatora Yaguchi attended, and is a third-year high school student at Geidai.\n\nTakahashi has a reserved and shy personality, but it is also shown to be standoffish and easy to anger. He\u2019s blunt, and often says things as they are in his mind without stopping to explain to others what he means. He has complete confidence in his art skills and isn't afraid to admit it.\n\n(Source: Blue Period Wiki)"},{"mal_id":195020,"url":"https:\/\/myanimelist.net\/character\/195020\/Mammon","images":{"jpg":{"image_url":"https:\/\/cdn.myanimelist.net\/images\/characters\/4\/438275.jpg"},"webp":{"image_url":"https:\/\/cdn.myanimelist.net\/images\/characters\/4\/438275.webp","small_image_url":"https:\/\/cdn.myanimelist.net\/images\/characters\/4\/438275t.webp"}},"name":"Mammon","name_kanji":"\u30de\u30e2\u30f3","nicknames":[],"favorites":486,"about":"Gender: Male\nRace: Demon, Former Angel\nBirthday: September 10th\nZodiac: Virgo\nLikes: Money\nDislikes: Work\n\nMammon is the Avatar of Greed and is the second oldest of the seven demon brothers, and the first to enter a pact with MC.\n\nMammon has white, messy hair, tanned skin, and blue and yellow gradient eyes. He has on gold stud earrings and two silver rings on his ring and pinky finger on his right hand. Like all of the demon brothers, Mammon paints his nails and specifically wears white nail polish.\n\n(Source: Obey Me! Wiki)"},{"mal_id":99233,"url":"https:\/\/myanimelist.net\/character\/99233\/Yoshino_Koiwai","images":{"jpg":{"image_url":"https:\/\/cdn.myanimelist.net\/images\/characters\/4\/261549.jpg"},"webp":{"image_url":"https:\/\/cdn.myanimelist.net\/images\/characters\/4\/261549.webp","small_image_url":"https:\/\/cdn.myanimelist.net\/images\/characters\/4\/261549t.webp"}},"name":"Yoshino Koiwai","name_kanji":"\u5c0f\u5ca9\u4e95 \u5409\u4e43","nicknames":["Cinderella","Shishou"],"favorites":486,"about":"Maid of Adagaki household. She seems to be a clumsy girl and is always pushed around by Aki.\n\n\nMakabe calls her \"shishou\" (\u5e2b\u5320) which means master or teacher."}]}